Modern Techniques in Modelling - P03. Introduction to ggplot: solutions
…
    filter, lag

The following objects are masked from 'package:base':

    intersect, setdiff, setequal, union

Rows: 801 Columns: 4
── Column specification ────────────────────────────────────────────────────────
Delimiter: ","
dbl (4): time, S, I, R

ℹ Use `spec()` to retrieve the full column specification for this data.
ℹ Specify the column types or set `show_col_types = FALSE` to quiet this message.

# A tibble: 801 × 4
    time     S          I            R
   <dbl> <dbl>      <dbl>        <dbl>
 1  0     1.00 0.000001   0           
 2  0.05  1.00 0.00000106 0.0000000188
 3  0.1   1.00 0.00000113 0.0000000388
 4  0.15  1.00 0.00000120 0.0000000600
 5  0.2   1.00 0.00000127 0.0000000826
 6  0.25  1.00 0.00000135 0.000000107 
 7  0.3   1.00 0.00000143 0.000000132 
 8  0.35  1.00 0.00000152 0.000000159 
 9  0.4   1.00 0.00000162 0.000000188 
10  0.45  1.00 0.00000172 0.000000218 
# ℹ 791 more rows

should return four columns: | time | S | I | R |

all_dat_long <- pivot_longer(all_dat, 
                             cols = c(S, I, R),
                             names_to = "state",
                             values_to = "proportion")

all_dat_long

# A tibble: 2,403 × 3
    time state   proportion
   <dbl> <chr>        <dbl>
 1  0    S     1.00        
 2  0    I     0.000001    
 3  0    R     0           
 4  0.05 S     1.00        
 5  0.05 I     0.00000106  
 6  0.05 R     0.0000000188
 7  0.1  S     1.00        
 8  0.1  I     0.00000113  
 9  0.1  R     0.0000000388
10  0.15 S     1.00        
# ℹ 2,393 more rows
…
a) Read in the 100 simulation data set

# 
all_dat_100 <- read_csv("100_simulations_wide.csv")
all_dat_100

Rows: 10100 Columns: 5
── Column specification ────────────────────────────────────────────────────────
Delimiter: ","
dbl (5): sim, time, S, I, R

ℹ Use `spec()` to retrieve the full column specification for this data.
ℹ Specify the column types or set `show_col_types = FALSE` to quiet this message.

# A tibble: 10,100 × 5
     sim  time     S     I      R
   <dbl> <dbl> <dbl> <dbl>  <dbl>
 1     1   0    99    1    0     
 2     1   0.1  98.9  1.10 0.0313
 3     1   0.2  98.7  1.21 0.0657
 4     1   0.3  98.6  1.34 0.104 
 5     1   0.4  98.4  1.47 0.145 
 6     1   0.5  98.2  1.62 0.191 
 7     1   0.6  98.0  1.78 0.242 
 8     1   0.7  97.7  1.96 0.298 
 9     1   0.8  97.5  2.16 0.359 
10     1   0.9  97.2  2.37 0.426 
# ℹ 10,090 more rows

should return five columns: | sim | time | S | I | R |

all_dat_100_long <- pivot_longer(all_dat_100, 
                                 cols = c("S", "I", "R"),
                                 names_to = "state",
                                 values_to = "proportion")
all_dat_100_long$state <- factor(all_dat_100_long$state,
                             levels = c("S", "I", "R"))
all_dat_100_long

# A tibble: 30,300 × 4
     sim  time state proportion
   <dbl> <dbl> <fct>      <dbl>
 1     1   0   S        99     
 2     1   0   I         1     
 3     1   0   R         0     
 4     1   0.1 S        98.9   
 5     1   0.1 I         1.10  
 6     1   0.1 R         0.0313
 7     1   0.2 S        98.7   
 8     1   0.2 I         1.21  
 9     1   0.2 R         0.0657
10     1   0.3 S        98.6   
# ℹ 30,290 more rows
…
Calculating summary statistics

c) Use the group_by() function to tell R that we want to calculate summary statistics for each state at each time

all_dat_100_long_grouped <- group_by(all_dat_100_long, state, time) 
all_dat_100_long_grouped

# A tibble: 30,300 × 4
# Groups:   state, time [303]
     sim  time state proportion
   <dbl> <dbl> <fct>      <dbl>
 1     1   0   S        99     
 2     1   0   I         1     
 3     1   0   R         0     
 4     1   0.1 S        98.9   
 5     1   0.1 I         1.10  
 6     1   0.1 R         0.0313
 7     1   0.2 S        98.7   
 8     1   0.2 I         1.21  
 9     1   0.2 R         0.0657
10     1   0.3 S        98.6   
# ℹ 30,290 more rows
…
